{
    "key": "group_5d76a6d83b948",
    "title": "Block: Hero Slider",
    "fields": [
        {
            "key": "field_5d76a7a24fcc5",
            "label": "Slides",
            "name": "slides",
            "type": "repeater",
            "instructions": "",
            "required": 0,
            "conditional_logic": 0,
            "wrapper": {
                "width": "",
                "class": "",
                "id": ""
            },
            "collapsed": "field_5d76a7ce4fcc6",
            "min": 0,
            "max": 8,
            "layout": "block",
            "button_label": "Add Slide",
            "sub_fields": [
                {
                    "key": "field_5d76a7ce4fcc6",
                    "label": "Title",
                    "name": "title",
                    "type": "textarea",
                    "instructions": "Use <code>&lt;strong&gt;bold&lt;\/strong&gt;<\/code> to do script font.",
                    "required": 0,
                    "conditional_logic": 0,
                    "wrapper": {
                        "width": "",
                        "class": "",
                        "id": ""
                    },
                    "default_value": "",
                    "placeholder": "The <strong>Orlando<\/strong> you only thought you knew.",
                    "maxlength": "",
                    "rows": 4,
                    "new_lines": ""
                },
                {
                    "key": "field_5d76a8424fcc7",
                    "label": "Background Image",
                    "name": "image",
                    "type": "image",
                    "instructions": "",
                    "required": 0,
                    "conditional_logic": 0,
                    "wrapper": {
                        "width": "",
                        "class": "",
                        "id": ""
                    },
                    "return_format": "id",
                    "preview_size": "banner",
                    "library": "all",
                    "min_width": "",
                    "min_height": "",
                    "min_size": "",
                    "max_width": "",
                    "max_height": "",
                    "max_size": "",
                    "mime_types": ""
                }
            ]
        },
        {
            "key": "field_5d76ab21d4f14",
            "label": "Scroll Label",
            "name": "scroll_label",
            "type": "text",
            "instructions": "",
            "required": 0,
            "conditional_logic": 0,
            "wrapper": {
                "width": "",
                "class": "",
                "id": ""
            },
            "default_value": "Discover the City Beautiful",
            "placeholder": "",
            "prepend": "",
            "append": "",
            "maxlength": ""
        }
    ],
    "location": [
        [
            {
                "param": "block",
                "operator": "==",
                "value": "acf\/oep-hero-slider-block"
            }
        ]
    ],
    "menu_order": 0,
    "position": "normal",
    "style": "default",
    "label_placement": "top",
    "instruction_placement": "label",
    "hide_on_screen": "",
    "active": 1,
    "description": "",
    "modified": 1568058236
}