{
    "key": "group_5d7bbff20da41",
    "title": "Block: Company Cards",
    "fields": [
        {
            "key": "field_5d7bcbb60aadc",
            "label": "Companies",
            "name": "companies",
            "type": "relationship",
            "instructions": "Select companies",
            "required": 1,
            "conditional_logic": 0,
            "wrapper": {
                "width": "",
                "class": "",
                "id": ""
            },
            "post_type": [
                "oep_cpts_company"
            ],
            "taxonomy": "",
            "filters": [
                "search"
            ],
            "elements": "",
            "min": 1,
            "max": 8,
            "return_format": "id"
        }
    ],
    "location": [
        [
            {
                "param": "block",
                "operator": "==",
                "value": "acf\/oep-company-cards-block"
            }
        ]
    ],
    "menu_order": 0,
    "position": "normal",
    "style": "default",
    "label_placement": "top",
    "instruction_placement": "label",
    "hide_on_screen": "",
    "active": 1,
    "description": "",
    "modified": 1568394327
}